id,value
Q:root.GB:0.GB:0.ATTR:customer,1
Q:root.GB:0,1
Q:root.SC:3.ATTR:city,1
Q:root.SC:3.BINARY:=,1
Q:root,1
Q:root.SC:3,1
Q:root.MEASURE:0.OP:sum,1
Q:root.SC:3.VALUE:Cesena,1
Q:root.MEASURE:0,1
Q:root.GB:0.GB:0,1
Q:root.GB:0.GB:0.GB:by,1
Q:root.GB:0.ATTR:year,1
Q:root.MEASURE:0.MEASURE:sales,1