id,value
Q:root,1
Q:root.GB:0.GB:0.ATTR:customer,1
Q:root.GB:0,1
Q:root.MEASURE:0.OP:sum,1
Q:root.MEASURE:0,1
Q:root.GB:0.GB:0,1
Q:root.GB:0.GB:0.GB:by,1
Q:root.GB:0.ATTR:year,1
Q:root.MEASURE:0.MEASURE:sales,1